<?xml version="1.0" encoding="UTF-8" standalone="no"?>
<!-- Created with Inkscape (http://www.inkscape.org/) -->

<svg
   xmlns:dc="http://purl.org/dc/elements/1.1/"
   xmlns:cc="http://creativecommons.org/ns#"
   xmlns:rdf="http://www.w3.org/1999/02/22-rdf-syntax-ns#"
   xmlns:svg="http://www.w3.org/2000/svg"
   xmlns="http://www.w3.org/2000/svg"
   xmlns:sodipodi="http://sodipodi.sourceforge.net/DTD/sodipodi-0.dtd"
   xmlns:inkscape="http://www.inkscape.org/namespaces/inkscape"
   width="140mm"
   height="32mm"
   viewBox="0 0 140 32"
   version="1.1"
   id="svg8"
   sodipodi:docname="RATLogo.svg"
   inkscape:version="0.92.4 5da689c313, 2019-01-14">
  <defs
     id="defs2" />
  <sodipodi:namedview
     id="base"
     pagecolor="#ffffff"
     bordercolor="#666666"
     borderopacity="1.0"
     inkscape:pageopacity="0.0"
     inkscape:pageshadow="2"
     inkscape:zoom="1.979899"
     inkscape:cx="283.38316"
     inkscape:cy="196.39025"
     inkscape:document-units="mm"
     inkscape:current-layer="layer1"
     showgrid="false"
     objecttolerance="1"
     inkscape:window-width="2560"
     inkscape:window-height="1548"
     inkscape:window-x="0"
     inkscape:window-y="0"
     inkscape:window-maximized="1"
     fit-margin-top="0"
     fit-margin-left="0"
     fit-margin-right="0"
     fit-margin-bottom="0" />
  <metadata
     id="metadata5">
    <rdf:RDF>
      <cc:Work
         rdf:about="">
        <dc:format>image/svg+xml</dc:format>
        <dc:type
           rdf:resource="http://purl.org/dc/dcmitype/StillImage" />
        <dc:title></dc:title>
      </cc:Work>
    </rdf:RDF>
  </metadata>
  <g
     inkscape:label="Layer 1"
     inkscape:groupmode="layer"
     id="layer1"
     transform="translate(-17.072842,-12.862404)">
    <path
       style="fill:#8ea39a;fill-opacity:1;stroke:#000000;stroke-width:0.35201278;stroke-linecap:butt;stroke-linejoin:miter;stroke-miterlimit:4;stroke-dasharray:none;stroke-opacity:1"
       d="m 39.46966,20.186264 c 0,0 0.02471,-1.872661 -0.669105,-2.607312 -0.693821,-0.734651 -1.636678,-1.182281 -1.636678,-1.182281 0,0 -0.602409,0.76315 -0.686617,1.507488 -0.08419,0.744348 0.413353,2.709254 0.485369,2.651044"
       id="path5553-1"
       inkscape:connector-curvature="0" />
    <path
       style="fill:#fff9b7;stroke:#000000;stroke-width:0.26458332px;stroke-linecap:butt;stroke-linejoin:miter;stroke-opacity:1;fill-opacity:1"
       d="m 45.610043,24.369008 0.413412,1.653646 0.956752,-0.05906 0.141742,0.578776 0.944941,-0.47247 -0.791387,-1.594587 z"
       id="path5526"
       inkscape:connector-curvature="0" />
    <path
       style="fill:#638f7c;stroke:#000000;stroke-width:0.26458332px;stroke-linecap:butt;stroke-linejoin:miter;stroke-opacity:1;fill-opacity:1"
       d="m 33.632924,31.255262 c 0,0 4.582961,1.34654 5.220796,1.275669 0.637835,-0.07087 2.267857,-0.47247 2.740327,-0.874069 0.47247,-0.4016 1.370164,-2.267858 1.370164,-2.267858 0,0 -1.322917,-0.992187 -0.992188,-1.204799 0.330729,-0.212611 1.889881,1.086682 1.889881,1.086682 0,0 0.236236,-0.307106 0.330729,-0.165365 0.09449,0.141741 -1.370163,3.165551 -1.370163,3.165551 0,0 -2.409598,1.228422 -2.905692,1.157552 -0.496094,-0.07087 -4.890067,-0.614211 -4.890067,-0.614211 z"
       id="path5522"
       inkscape:connector-curvature="0" />
    <path
       style="fill:#638f7c;stroke:#000000;stroke-width:0.26458332px;stroke-linecap:butt;stroke-linejoin:miter;stroke-opacity:1;fill-opacity:1"
       d="m 33.042336,28.963781 3.590774,-0.188988 3.638021,0.47247 0.826822,1.74814 -2.031622,-0.850446 -2.882068,-0.543341 -3.141927,0.448847 0.09449,-1.110305 z"
       id="path5520"
       inkscape:connector-curvature="0" />
    <path
       style="fill:#88c9b5;stroke:#000000;stroke-width:0.26458332px;stroke-linecap:butt;stroke-linejoin:miter;stroke-opacity:1;fill-opacity:1"
       d="m 33.676961,18.837035 c 0,0 -1.570208,-2.505652 -5.378799,-2.739513 -3.808591,-0.233861 -7.182869,0.701582 -7.182869,0.701582 0,0 1.670435,-1.77066 3.641548,-2.03793 1.971113,-0.267269 5.245164,-0.133634 5.946747,0.133635 0.701582,0.26727 1.837478,0.801809 2.372017,1.503391 0.534539,0.701582 2.071339,2.338609 2.071339,2.338609 z"
       id="path5518"
       inkscape:connector-curvature="0" />
    <path
       style="fill:#88c9b5;stroke:#000000;stroke-width:0.26458332px;stroke-linecap:butt;stroke-linejoin:miter;stroke-opacity:1;fill-opacity:1"
       d="m 41.461186,31.665972 c 0,0 -1.002261,-2.405426 -1.570208,-3.340869 -0.567948,-0.935444 -2.271791,-3.173826 -2.271791,-3.173826 l 1.236121,-0.334087 c 0,0 1.737252,1.937704 2.03793,2.572469 0.300679,0.634765 1.503392,3.040191 1.503392,3.040191 z"
       id="path5514"
       inkscape:connector-curvature="0" />
    <path
       style="fill:#88c9b5;stroke:#000000;stroke-width:0.26458332px;stroke-linecap:butt;stroke-linejoin:miter;stroke-opacity:1;fill-opacity:1"
       d="m 37.619187,37.31204 c 0,0 0.100226,0.7684 0.03341,1.169305 -0.06682,0.400904 -0.200452,1.135895 -0.200452,1.135895 0,0 3.107008,-0.7684 3.775182,-1.469982 0.668174,-0.701583 1.637026,-2.405426 1.570209,-2.839739 -0.06682,-0.434313 0.100226,-1.002261 0.133635,-1.603617 0.03341,-0.601357 -0.03341,-1.5368 -0.03341,-1.5368 l -1.26953,0.668174 c 0,0 0.03341,1.837478 -0.601357,2.505652 -0.634765,0.668173 -1.637026,1.469982 -2.138156,1.670434 -0.50113,0.200452 -1.26953,0.300678 -1.269531,0.300678 z"
       id="path5512"
       inkscape:connector-curvature="0" />
    <path
       style="fill:#88c9b5;stroke:#000000;stroke-width:0.26458332px;stroke-linecap:butt;stroke-linejoin:miter;stroke-opacity:1;fill-opacity:1"
       d="m 20.714389,38.147258 c 0,0 -3.006782,2.138155 -2.873147,3.006782 0.133635,0.868625 0.434313,1.570207 1.603617,1.80407 1.169304,0.233859 3.908817,0.501128 4.810852,0.367495 0.902034,-0.133636 5.211755,-0.801809 5.211755,-0.801809 l -2.80633,-0.835218 c 0,0 -2.104747,1.069078 -4.409947,0.167045 -2.3052,-0.902036 -2.204974,-0.668174 -2.271791,-1.069078 -0.06682,-0.400905 0,-0.902036 0.601356,-1.169305 0.601357,-0.267269 0.935444,-0.467721 0.935444,-0.467721 z"
       id="path5510"
       inkscape:connector-curvature="0" />
    <path
       style="fill:#aab434;fill-opacity:1;stroke:#000000;stroke-width:0.325;stroke-linecap:butt;stroke-linejoin:miter;stroke-opacity:1;stroke-miterlimit:4;stroke-dasharray:none"
       d="m 33.55255,42.430088 c 0,0 2.656364,0.07918 3.488954,0.03959 0.832592,-0.03959 2.14095,-0.276823 1.823771,-0.474561 -0.317177,-0.197738 -3.488954,-0.276823 -3.488954,-0.276823 0,0 3.211423,0 3.171777,-0.435018 C 38.508449,40.848258 36.3675,41.125073 36.3675,41.125073"
       id="path4614"
       inkscape:connector-curvature="0" />
    <path
       style="fill:#8ea39a;fill-opacity:1;stroke:#000000;stroke-width:0.51600438px;stroke-linecap:butt;stroke-linejoin:miter;stroke-opacity:1"
       d="m 23.871533,21.018107 c 0,0 -2.810383,1.658585 -4.100393,4.883613 -1.29001,3.225028 -0.460718,7.555779 -0.460718,7.555779 0,0 0.506791,4.330751 1.935016,5.620762 1.428226,1.290012 6.588272,3.271099 7.786139,3.455388 1.197867,0.184279 5.436474,0.138214 7.187205,-1.4743 1.750728,-1.612514 1.52037,-2.211446 1.428227,-3.547529 -0.09215,-1.336084 -0.414648,-2.626094 -2.580023,-4.699326 -2.165376,-2.073232 -2.303592,-2.948597 -2.073232,-3.916106 0.230358,-0.967507 0.967509,-3.040739 3.271099,-3.501459 2.303592,-0.460718 5.943265,-1.197867 8.016497,-1.105723 2.073232,0.09215 4.192537,0.368574 4.607182,0.322503 0.414647,-0.04607 1.382156,-0.645007 1.382156,-0.645007 l -0.23036,-0.691076 0.04606,-0.460718 c 0,0 -2.073232,-0.276431 -2.76431,-0.598934 -0.69108,-0.322504 -1.98109,-1.612514 -1.98109,-1.612514 l -5.344322,-1.197869 c -1.597791,-0.5629 -2.24269,-0.697719 -4.100393,-0.829292 0,0 -7.141132,0.829292 -8.339001,1.105725 -1.197866,0.276431 -3.685744,1.336083 -3.685744,1.336083 z"
       id="path5392"
       inkscape:connector-curvature="0"
       sodipodi:nodetypes="cscscscscccccccscccccc" />
    <path
       style="fill:none;fill-opacity:1;stroke:#000000;stroke-width:0.325;stroke-linecap:butt;stroke-linejoin:miter;stroke-miterlimit:4;stroke-dasharray:none;stroke-opacity:1"
       d="m 35.988668,18.638215 c 0,0 -4.597708,0.223712 -9.083278,1.230417 -4.48557,1.006703 -7.06477,4.250521 -7.625468,8.165479 -0.560694,3.914955 0.224279,9.955173 2.579204,11.521158 2.354922,1.565985 6.616213,3.355666 9.419692,3.13197 2.803485,-0.223712 6.504076,-1.006705 6.391935,-4.921666 -0.11214,-3.914963 -3.139896,-4.809804 -4.261287,-6.82321 -1.121392,-2.013406 0.112139,-4.921658 3.364174,-5.592793 3.252038,-0.671135 5.719102,-1.11856 8.410445,-1.006703 2.691341,0.111867 3.252037,0.447423 4.261287,0.111867 1.009254,-0.335571 0.897115,-0.671139 0.897115,-0.671139"
       id="path4533"
       inkscape:connector-curvature="0" />
    <path
       style="fill:none;stroke:#000000;stroke-width:0.51600438px;stroke-linecap:butt;stroke-linejoin:miter;stroke-opacity:1"
       d="m 39.784849,19.299698 c 0,0 4.749975,1.102697 5.344683,1.300435 0.594709,0.197734 1.268712,1.067769 1.903067,1.423692 0.634353,0.355923 3.013188,0.830486 3.013188,0.830486"
       id="path4535"
       inkscape:connector-curvature="0"
       sodipodi:nodetypes="cccc" />
    <ellipse
       style="opacity:1;fill:#aab434;fill-opacity:1;stroke:#000000;stroke-width:0.325;stroke-miterlimit:10;stroke-dasharray:none;stroke-opacity:1"
       id="path4539"
       cx="51.096443"
       cy="23.204969"
       rx="1.1299454"
       ry="0.63801116" />
    <ellipse
       style="opacity:1;fill:none;fill-opacity:1;stroke:#000000;stroke-width:0.68182325;stroke-miterlimit:10;stroke-dasharray:none;stroke-opacity:1"
       id="path4539-6-0"
       cx="45.006496"
       cy="19.417862"
       rx="0.53172565"
       ry="0.312197"
       transform="matrix(0.99840478,0.05646138,-0.08899349,0.99603221,0,0)" />
    <path
       style="fill:none;stroke:#000000;stroke-width:0.325;stroke-linecap:butt;stroke-linejoin:miter;stroke-opacity:1;stroke-miterlimit:4;stroke-dasharray:none"
       d="m 45.56565,24.431598 0.47577,1.626023 0.792944,-0.03953 -0.43612,-1.502786"
       id="path4589"
       inkscape:connector-curvature="0"
       sodipodi:nodetypes="cccc" />
    <path
       style="fill:none;stroke:#000000;stroke-width:0.325;stroke-linecap:butt;stroke-linejoin:miter;stroke-opacity:1;stroke-miterlimit:4;stroke-dasharray:none"
       d="m 47.310128,24.515285 0.674001,1.581883 -0.83259,0.438197 -0.753295,-2.02008"
       id="path4591"
       inkscape:connector-curvature="0"
       sodipodi:nodetypes="cccc" />
    <path
       style="fill:none;stroke:#000000;stroke-width:0.51600438px;stroke-linecap:butt;stroke-linejoin:miter;stroke-opacity:1"
       d="m 20.627562,38.277651 c 0,0 -3.528602,2.135538 -2.616716,3.677876 0.911887,1.542323 5.352371,1.423699 5.352371,1.423699 0,0 5.193785,-0.593216 5.82814,-0.711856"
       id="path4593"
       inkscape:connector-curvature="0" />
    <path
       style="fill:none;stroke:#000000;stroke-width:0.51600438px;stroke-linecap:butt;stroke-linejoin:miter;stroke-opacity:1"
       d="m 21.301564,39.226788 c 0,0 -1.546241,0.593201 -1.387652,1.344598 0.158595,0.751384 2.735657,1.46324 3.488954,1.581882 0.753297,0.118614 3.290718,-0.237297 3.290718,-0.237297"
       id="path4595"
       inkscape:connector-curvature="0" />
    <path
       style="fill:none;stroke:#000000;stroke-width:0.51600432px;stroke-linecap:butt;stroke-linejoin:miter;stroke-opacity:1"
       d="m 19.724137,38.943241 c 0,0 0.27358,-0.136284 0.547159,0.170471 0.27358,0.30683 0.239382,0.545486 0.239382,0.545486"
       id="path4597"
       inkscape:connector-curvature="0" />
    <path
       style="fill:none;stroke:#000000;stroke-width:0.51600432px;stroke-linecap:butt;stroke-linejoin:miter;stroke-opacity:1"
       d="m 18.666441,39.871981 c 0,0 -0.0691,0.08657 0.43591,0.240907 0.505013,0.154343 0.800712,0.177414 0.800712,0.177414"
       id="path4597-7"
       inkscape:connector-curvature="0" />
    <path
       style="fill:none;stroke:#000000;stroke-width:0.51600438px;stroke-linecap:butt;stroke-linejoin:miter;stroke-opacity:1"
       d="m 37.834445,37.447169 c 0,0 2.497775,-1.028221 2.933897,-1.740077 0.436119,-0.711842 0.911885,-1.740064 0.911885,-2.728741"
       id="path4616"
       inkscape:connector-curvature="0" />
    <path
       style="fill:none;stroke:#000000;stroke-width:0.51600438px;stroke-linecap:butt;stroke-linejoin:miter;stroke-opacity:1"
       d="m 42.869642,32.266505 c 0,0 0.27753,3.717424 -1.189415,5.299303 -1.466947,1.581882 -4.162959,2.135541 -4.162959,2.135541"
       id="path4618"
       inkscape:connector-curvature="0" />
    <path
       style="fill:none;stroke:#000000;stroke-width:0.51600438px;stroke-linecap:butt;stroke-linejoin:miter;stroke-opacity:1"
       d="m 33.235373,28.9841 3.330363,-0.197736 3.488955,0.474567"
       id="path4624"
       inkscape:connector-curvature="0" />
    <path
       style="fill:none;stroke:#000000;stroke-width:0.51600438px;stroke-linecap:butt;stroke-linejoin:miter;stroke-opacity:1"
       d="m 39.341039,30.091417 -3.171776,-0.51411 -2.93389,0.395468"
       id="path4628"
       inkscape:connector-curvature="0" />
    <path
       style="fill:none;stroke:#000000;stroke-width:0.51600438px;stroke-linecap:butt;stroke-linejoin:miter;stroke-opacity:1"
       d="m 33.586369,31.352222 c 0,0 4.287727,1.230659 5.437495,1.19111 1.149766,-0.03953 2.973539,-0.751392 2.894243,-1.502785 -0.0793,-0.751394 0.03965,-1.621429 0.03965,-1.621429 l 0.317178,1.186411 0.715241,-1.225958 c 0,0 -1.389243,-0.949128 -0.913481,-1.225958 0.47577,-0.276829 1.744478,1.107318 1.744478,1.107318 0,0 0.436122,-0.514112 0.436122,0.0791 0,0.593203 -1.427299,2.847385 -1.427299,2.847385 0,0 -2.299539,1.502777 -3.964722,1.146864 -1.66518,-0.355923 -3.845778,-0.553659 -3.845778,-0.553659"
       id="path4630"
       inkscape:connector-curvature="0"
       sodipodi:nodetypes="csccccccscsc" />
    <path
       style="fill:none;stroke:#000000;stroke-width:0.51600438px;stroke-linecap:butt;stroke-linejoin:miter;stroke-opacity:1"
       d="m 41.402695,31.633751 c 0,0 -1.229065,-3.20331 -2.180596,-4.310626 -0.951532,-1.107317 -1.506594,-1.937803 -1.506594,-1.937803"
       id="path4632"
       inkscape:connector-curvature="0" />
    <path
       style="fill:none;stroke:#000000;stroke-width:0.51600438px;stroke-linecap:butt;stroke-linejoin:miter;stroke-opacity:1"
       d="m 38.785982,24.989852 c 0,0 1.389849,1.477482 1.905262,2.18933 0.515413,0.711847 1.426201,3.030081 1.781927,2.793593"
       id="path4634"
       inkscape:connector-curvature="0"
       sodipodi:nodetypes="ccc" />
    <path
       style="fill:none;stroke:#000000;stroke-width:0.51600438px;stroke-linecap:butt;stroke-linejoin:miter;stroke-opacity:1"
       d="m 33.433608,18.543684 c 0,0 -1.625536,-2.412367 -5.748845,-2.570556 -4.123308,-0.158185 -6.898612,0.949128 -6.898612,0.949128 0,0 2.622254,-2.8892 7.136496,-2.37282 4.157195,0.475536 3.409659,0.553657 4.40084,1.225956 0.991181,0.672301 2.577068,2.6892 2.577068,2.6892"
       id="path4636"
       inkscape:connector-curvature="0"
       sodipodi:nodetypes="cscssc" />
    <path
       style="fill:none;stroke:#000000;stroke-width:0.51600438px;stroke-linecap:butt;stroke-linejoin:miter;stroke-opacity:1"
       d="m 39.301395,30.012325 c 0,0 1.149769,0.790938 1.506593,0.830486"
       id="path4638"
       inkscape:connector-curvature="0" />
    <path
       style="fill:none;stroke:#000000;stroke-width:0.51600438px;stroke-linecap:butt;stroke-linejoin:miter;stroke-opacity:1"
       d="m 39.935749,29.260931 0.31718,-0.118634"
       id="path4640"
       inkscape:connector-curvature="0" />
    <text
       xml:space="preserve"
       style="font-style:normal;font-weight:normal;font-size:8.6795578px;line-height:1.25;font-family:sans-serif;letter-spacing:0px;word-spacing:0px;fill:#000000;fill-opacity:1;stroke:none;stroke-width:0.26458332"
       x="8.2446651"
       y="-5.1838155"
       id="text4644"><tspan
         sodipodi:role="line"
         id="tspan4642"
         x="8.2446651"
         y="-5.1838155"
         style="font-style:normal;font-variant:normal;font-weight:normal;font-stretch:normal;font-family:'Noto Serif';-inkscape-font-specification:'Noto Serif';stroke-width:0.26458332">Я∀T</tspan></text>
    <path
       style="fill:none;stroke:#000000;stroke-width:0.51600438px;stroke-linecap:butt;stroke-linejoin:miter;stroke-opacity:1"
       d="M 18.648584,42.511993 20.606636,41.29109"
       id="path4646"
       inkscape:connector-curvature="0" />
    <path
       style="fill:none;stroke:#000000;stroke-width:0.51600438px;stroke-linecap:butt;stroke-linejoin:miter;stroke-opacity:1"
       d="m 21.643252,41.843952 -0.575898,1.174832"
       id="path4648"
       inkscape:connector-curvature="0" />
    <path
       style="fill:none;stroke:#000000;stroke-width:0.51600438px;stroke-linecap:butt;stroke-linejoin:miter;stroke-opacity:1"
       d="m 23.301841,42.258599 c 0,0 0.506787,0.575898 0.253392,0.898401"
       id="path4650"
       inkscape:connector-curvature="0" />
    <path
       style="fill:none;stroke:#000000;stroke-width:0.51600438px;stroke-linecap:butt;stroke-linejoin:miter;stroke-opacity:1"
       d="m 25.375073,42.258599 c 0,0 0.691074,0.760185 0.184279,0.967509"
       id="path4652"
       inkscape:connector-curvature="0" />
    <path
       style="fill:none;stroke:#000000;stroke-width:0.51600438px;stroke-linecap:butt;stroke-linejoin:miter;stroke-opacity:1"
       d="m 39.012332,36.914268 c 0,0 1.197869,0.299467 0.668042,2.027159"
       id="path4654"
       inkscape:connector-curvature="0" />
    <path
       style="fill:none;stroke:#000000;stroke-width:0.51600438px;stroke-linecap:butt;stroke-linejoin:miter;stroke-opacity:1"
       d="m 40.763064,35.716399 c 0,0 -0.09215,-0.368574 0.552856,0.322504 0.645007,0.691078 0.806258,1.243939 0.806258,1.243939"
       id="path4656"
       inkscape:connector-curvature="0" />
    <path
       style="fill:none;stroke:#000000;stroke-width:0.51600438px;stroke-linecap:butt;stroke-linejoin:miter;stroke-opacity:1"
       d="m 41.638424,33.9196 c 0,0 0.898405,-0.161247 1.128759,0.506789"
       id="path4658"
       inkscape:connector-curvature="0" />
    <path
       style="fill:none;stroke:#000000;stroke-width:0.51600438px;stroke-linecap:butt;stroke-linejoin:miter;stroke-opacity:1"
       d="m 40.371452,29.381525 c 0,0 0.345538,-1.566443 0.806258,-1.451263"
       id="path4660"
       inkscape:connector-curvature="0" />
    <path
       style="fill:none;stroke:#000000;stroke-width:0.51600438px;stroke-linecap:butt;stroke-linejoin:miter;stroke-opacity:1"
       d="m 39.196619,27.054897 c 0,0 0.138215,-0.990544 0.66804,-0.78322"
       id="path4662"
       inkscape:connector-curvature="0" />
    <path
       style="fill:none;stroke:#000000;stroke-width:0.51600438px;stroke-linecap:butt;stroke-linejoin:miter;stroke-opacity:1"
       d="m 32.562278,17.610172 c 0,0 -0.02307,-0.875365 0.253394,-0.783221 0.276429,0.09215 0.714113,0.09215 0.714113,0.09215"
       id="path4664"
       inkscape:connector-curvature="0" />
    <path
       style="fill:none;stroke:#000000;stroke-width:0.51600438px;stroke-linecap:butt;stroke-linejoin:miter;stroke-opacity:1"
       d="m 29.268141,16.043729 c 0,0 -0.299468,-0.184279 -0.23036,-0.50679 0.06912,-0.322502 0.69108,-0.598933 0.69108,-0.598933"
       id="path4668"
       inkscape:connector-curvature="0" />
    <path
       style="fill:none;stroke:#000000;stroke-width:0.51600438px;stroke-linecap:butt;stroke-linejoin:miter;stroke-opacity:1"
       d="m 25.236857,15.928549 c 0,0 -0.66804,-0.529825 -0.18428,-1.243937"
       id="path4670"
       inkscape:connector-curvature="0" />
    <text
       xml:space="preserve"
       style="font-style:normal;font-weight:normal;font-size:8.6795578px;line-height:1.25;font-family:sans-serif;letter-spacing:0px;word-spacing:0px;fill:#000000;fill-opacity:1;stroke:none;stroke-width:0.26458332"
       x="-14.681716"
       y="-5.1677713"
       id="text4644-8"><tspan
         sodipodi:role="line"
         id="tspan4642-7"
         x="-14.681716"
         y="-5.1677713"
         style="font-style:normal;font-variant:normal;font-weight:normal;font-stretch:normal;font-family:'Noto Serif';-inkscape-font-specification:'Noto Serif';stroke-width:0.26458332">M∀G</tspan></text>
    <text
       xml:space="preserve"
       style="font-style:normal;font-weight:normal;font-size:16.92733383px;line-height:1.25;font-family:sans-serif;letter-spacing:0px;word-spacing:0px;fill:#000000;fill-opacity:1;stroke:none;stroke-width:0.51600438"
       x="44.854122"
       y="43.036568"
       id="text4644-6"><tspan
         sodipodi:role="line"
         id="tspan4642-0"
         x="44.854122"
         y="43.036568"
         style="font-style:normal;font-variant:normal;font-weight:normal;font-stretch:normal;font-family:'Noto Serif';-inkscape-font-specification:'Noto Serif';fill:#2eac71;fill-opacity:1;stroke-width:0.51600438">ЯΔ</tspan></text>
    <text
       xml:space="preserve"
       style="font-style:normal;font-weight:normal;font-size:16.90590477px;line-height:1.25;font-family:sans-serif;letter-spacing:0px;word-spacing:0px;fill:#2eac71;fill-opacity:1;stroke:none;stroke-width:0.51600438;stroke-opacity:1"
       x="54.780178"
       y="-54.584641"
       id="text5396"
       transform="rotate(72.176384)"
       inkscape:transform-center-x="-2.6591772"
       inkscape:transform-center-y="-1.7119433"><tspan
         sodipodi:role="line"
         id="tspan5394"
         x="54.780178"
         y="-54.584641"
         style="font-style:normal;font-variant:normal;font-weight:normal;font-stretch:normal;font-family:'Noto Serif';-inkscape-font-specification:'Noto Serif';fill:#2eac71;fill-opacity:1;stroke:none;stroke-width:0.51600438;stroke-opacity:1">T</tspan></text>
    <text
       xml:space="preserve"
       style="font-style:normal;font-weight:normal;font-size:1.94231009px;line-height:1.25;font-family:sans-serif;text-align:end;letter-spacing:0px;word-spacing:0px;text-anchor:end;fill:#000000;fill-opacity:1;stroke:none;stroke-width:0.26458332"
       x="66.66494"
       y="-5.6120915"
       id="text5431"><tspan
         sodipodi:role="line"
         id="tspan5429"
         x="66.66494"
         y="-5.6120915"
         style="font-style:normal;font-variant:normal;font-weight:300;font-stretch:normal;font-family:'Noto Serif';-inkscape-font-specification:'Noto Serif Light';text-align:end;text-anchor:end;stroke-width:0.26458332">Coil</tspan><tspan
         sodipodi:role="line"
         x="66.66494"
         y="-3.1354334"
         style="font-style:normal;font-variant:normal;font-weight:300;font-stretch:normal;font-family:'Noto Serif';-inkscape-font-specification:'Noto Serif Light';text-align:end;text-anchor:end;stroke-width:0.26458332"
         id="tspan5433">Design</tspan><tspan
         sodipodi:role="line"
         x="66.66494"
         y="-0.65877551"
         style="font-style:normal;font-variant:normal;font-weight:300;font-stretch:normal;font-family:'Noto Serif';-inkscape-font-specification:'Noto Serif Light';text-align:end;text-anchor:end;stroke-width:0.26458332"
         id="tspan5435">Library</tspan></text>
    <text
       xml:space="preserve"
       style="font-style:normal;font-weight:normal;font-size:10.58333302px;line-height:1.25;font-family:sans-serif;letter-spacing:0px;word-spacing:0px;fill:#abdae5;fill-opacity:1;stroke:none;stroke-width:0.26458332"
       x="82.273735"
       y="2.3400803"
       id="text5506"><tspan
         sodipodi:role="line"
         id="tspan5504"
         x="82.273735"
         y="2.3400803"
         style="fill:#abdae5;fill-opacity:1;stroke-width:0.26458332">Rot A in Tesla</tspan></text>
    <path
       style="fill:none;stroke:#000000;stroke-width:0.1;stroke-linecap:butt;stroke-linejoin:miter;stroke-miterlimit:4;stroke-dasharray:none;stroke-opacity:1"
       d="m 45.975945,23.547906 -1.654468,3.277409"
       id="path5528"
       inkscape:connector-curvature="0"
       sodipodi:nodetypes="cc" />
    <path
       style="fill:none;stroke:#000000;stroke-width:0.1;stroke-linecap:butt;stroke-linejoin:miter;stroke-miterlimit:4;stroke-dasharray:none;stroke-opacity:1"
       d="M 45.274363,23.430975 43.03598,26.613153"
       id="path5530"
       inkscape:connector-curvature="0" />
    <path
       style="fill:none;stroke:#000000;stroke-width:0.1;stroke-linecap:butt;stroke-linejoin:miter;stroke-miterlimit:4;stroke-dasharray:none;stroke-opacity:1"
       d="m 44.57278,23.288989 -1.977582,1.897172"
       id="path5532"
       inkscape:connector-curvature="0"
       sodipodi:nodetypes="cc" />
    <path
       style="fill:#8ea39a;fill-opacity:1;stroke:#000000;stroke-width:0.36807674;stroke-linecap:butt;stroke-linejoin:miter;stroke-miterlimit:4;stroke-dasharray:none;stroke-opacity:1"
       d="m 39.825594,19.929963 c 0,0 0.233271,-1.661765 -0.298373,-2.392595 -0.531651,-0.730829 -1.316296,-1.234473 -1.316296,-1.234473 0,0 -0.619752,0.61076 -0.778344,1.262937 -0.158595,0.652178 -0.04922,1.715077 0.130686,2.410855"
       id="path5553"
       inkscape:connector-curvature="0"
       sodipodi:nodetypes="ccccc" />
    <path
       style="fill:#a9c4b8;stroke:none;stroke-width:0.26458332px;stroke-linecap:butt;stroke-linejoin:miter;stroke-opacity:1;fill-opacity:1"
       d="m 38.187134,19.889408 c 0,0 -0.30903,-0.993908 -0.267269,-1.411517 0.04176,-0.417609 0.334087,-1.035669 0.334087,-1.035669 0,0 0.902034,0.476074 0.977204,1.094134 0.07517,0.618061 -0.04176,1.294587 -0.04176,1.294587 0,0 -0.208804,-0.05011 -0.476074,0.0084 -0.267269,0.05846 -0.526187,0.05011 -0.526187,0.05011 z"
       id="path5570"
       inkscape:connector-curvature="0" />
  </g>
</svg>
